{
    "KPlugin": {
        "Authors": [
            {
                "Email": "trueg@k3b.org",
                "Name": "Sebastian Trueg",
                "Name[ca@valencia]": "Sebastian Trueg",
                "Name[ca]": "Sebastian Trueg",
                "Name[cs]": "Sebastian Trueg",
                "Name[da]": "Sebastian Trueg",
                "Name[de]": "Sebastian Trueg",
                "Name[el]": "Sebastian Trueg",
                "Name[en_GB]": "Sebastian Trueg",
                "Name[es]": "Sebastian Trueg",
                "Name[eu]": "Sebastian Trueg",
                "Name[fi]": "Sebastian Trueg",
                "Name[fr]": "Sebastian Trueg",
                "Name[hu]": "Sebastian Trueg",
                "Name[ia]": "Sebastian Trueg",
                "Name[it]": "Sebastian Trueg",
                "Name[ko]": "Sebastian Trueg",
                "Name[nl]": "Sebastian Trueg",
                "Name[pl]": "Sebastian Trueg",
                "Name[pt]": "Sebastian Trueg",
                "Name[pt_BR]": "Sebastian Trueg",
                "Name[sl]": "Sebastian Trueg",
                "Name[sv]": "Sebastian Trueg",
                "Name[uk]": "Sebastian Trueg",
                "Name[x-test]": "xxSebastian Truegxx",
                "Name[zh_CN]": "Sebastian Trueg"
            }
        ],
        "Category": "AudioDecoder",
        "Description": "Decoding module to decode wave files",
        "Description[bg]": "Декодер за wave файлове",
        "Description[bs]": "Modul dekodiranja za dekodiranje WAVE datoteke",
        "Description[ca@valencia]": "Mòdul de descodificació per a descodificar fitxers wave",
        "Description[ca]": "Mòdul de descodificació per a descodificar fitxers wave",
        "Description[cs]": "Modul pro dekódování souborů wave",
        "Description[csb]": "Mòdul dekòdërëjący lopczi wave",
        "Description[da]": "Dekodermodul til dekodning af wave-filer",
        "Description[de]": "Dekodierungsmodul für Wave-Dateien",
        "Description[el]": "Άρθρωμα αποκωδικοποίησης αρχείων Wave",
        "Description[en_GB]": "Decoding module to decode wave files",
        "Description[es]": "Descodificando módulo para descodificar archivos wave",
        "Description[et]": "Wave-failide dekodeerimise moodul",
        "Description[eu]": "wave fitxategiak deskodetzeko modulua",
        "Description[fi]": "Wave-äänitiedostojen purkumoduuli",
        "Description[fr]": "Module de décodage pour des fichiers audio au format « wav »",
        "Description[ga]": "Modúl díchódaithe a dhíchódaíonn comhaid Wave",
        "Description[gl]": "Módulo de descodificación de ficheiros wave",
        "Description[he]": "מודול המפענח קבצי Wave",
        "Description[hne]": "वेव फाइल ल डिकोड करे बर डिकोडिंग माड्यूल",
        "Description[hr]": "Dekoderski modul za dekodiranje wave datoteka",
        "Description[hu]": "Dekódolómodul wav-fájlok dekódolásához",
        "Description[ia]": "Modulo decifrante per decifrar files wave",
        "Description[id]": "Modul decoding untuk mendekode file-file wave",
        "Description[it]": "Decodifica modulare di file WAVE",
        "Description[ja]": "wave ファイルをデコードするモジュール",
        "Description[kk]": "Wave файлдарының декодер модулі",
        "Description[km]": "ម៉ូឌុល​ឌិកូដ សម្រាប់​ឌិកូដ​ឯកសារ wave",
        "Description[ko]": "웨이브 파일 디코딩 모듈",
        "Description[lt]": "Dekodavimo modulis dekoduoti wave failus",
        "Description[lv]": "Dekodēšanas modulis wave failiem",
        "Description[mr]": "wave फाईल्स डीकोड करण्याकरिता डीकोडिंग विभाग",
        "Description[nb]": "Modul som dekoder wave-filer",
        "Description[nds]": "Dekodeermoduul för \"Wave\"-Dateien",
        "Description[nl]": "Module voor het decoderen van wave-bestanden",
        "Description[nn]": "Modul for dekoding av wave-filer",
        "Description[pl]": "Moduł dekodujący pliki wave",
        "Description[pt]": "Módulo de descodificação de ficheiros WAVE",
        "Description[pt_BR]": "Módulo de decodificação de arquivos WAVE",
        "Description[ro]": "Modul de decodare pentru decodarea fișierelor wave",
        "Description[ru]": "Модуль декодирования файлов Wave",
        "Description[sk]": "Modul pre dekódovanie súborov wave",
        "Description[sl]": "Dekodirni modul za dekodiranje datotek Wave",
        "Description[sr@ijekavian]": "Модул за декодирање ВАВ фајлова",
        "Description[sr@ijekavianlatin]": "Modul za dekodiranje WAV fajlova",
        "Description[sr@latin]": "Modul za dekodiranje WAV fajlova",
        "Description[sr]": "Модул за декодирање ВАВ фајлова",
        "Description[sv]": "Avkodningsmodul för att avkoda wave-filer",
        "Description[th]": "มอดูลถอดรหัสแฟ้มประเภท wave",
        "Description[tr]": "Wav dosyalarının kodlarını çözmek için kod çözme modülü",
        "Description[uk]": "Модуль декодування файлів wave",
        "Description[x-test]": "xxDecoding module to decode wave filesxx",
        "Description[zh_CN]": "用于解码 WAVE 文件的解码模块",
        "Description[zh_TW]": "解碼 wave 檔案格式的模組",
        "EnabledByDefault": true,
        "Icon": "preferences-plugin",
        "Id": "k3bwavedecoder",
        "License": "GPL",
        "Name": "K3b Wave Decoder",
        "Name[bg]": "Wave декодер за K3b",
        "Name[bs]": "Wave dekoder za K3b",
        "Name[ca@valencia]": "Descodificador Wave del K3b",
        "Name[ca]": "Descodificador Wave del K3b",
        "Name[cs]": "Wave dekodér K3b",
        "Name[csb]": "Dekòder Wave dlô K3b",
        "Name[da]": "K3b wave-dekoder",
        "Name[de]": "Wave-Dekodierer",
        "Name[el]": "Αποκωδικοποιητής Wave του K3b",
        "Name[en_GB]": "K3b Wave Decoder",
        "Name[es]": "Descodificador Wave de K3b",
        "Name[et]": "K3b Wave dekodeerija",
        "Name[eu]": "K3b Wave deskodetzailea",
        "Name[fi]": "K3b:n Wave-purkaja",
        "Name[fr]": "Décodeur « Wave » pour K3b",
        "Name[ga]": "Díchódóir Wave K3b",
        "Name[gl]": "Descodificador de Wave para K3b",
        "Name[he]": "מפענח Wave של K3b",
        "Name[hne]": "के3बी वेव डिकोडर",
        "Name[hr]": "K3b-ov dekoder Wavea",
        "Name[hu]": "Wave-dekódoló a K3b-hez",
        "Name[ia]": "Decifrator Wave de K3b",
        "Name[id]": "Dekoder Wave K3b",
        "Name[is]": "K3b Wave afkóðari",
        "Name[it]": "Decodificatore Wave di K3b",
        "Name[ja]": "K3b wave デコーダ",
        "Name[kk]": "K3b Wave декодері",
        "Name[km]": "ឌិកូឌ័រ​ Wave របស់ K3b",
        "Name[ko]": "K3b 웨이브 디코더",
        "Name[lt]": "K3b Wave dekoderis",
        "Name[lv]": "K3b Wave dekoderis",
        "Name[mr]": "के3बी Wave डीकोडर",
        "Name[nb]": "K3b Wave-dekoder",
        "Name[nds]": "Wave-Dekoderer för K3b",
        "Name[nl]": "K3b Wave-decoder",
        "Name[nn]": "Wave-dekodar for K3b",
        "Name[pa]": "K3b Wave ਡੀਕੋਡਰ",
        "Name[pl]": "Dekoder Wave dla K3b",
        "Name[pt]": "Descodificador de WAVE do K3b",
        "Name[pt_BR]": "Decodificador Wave do K3b",
        "Name[ro]": "Decodor K3b Wave",
        "Name[ru]": "Декодер Wave",
        "Name[sk]": "Wave dekodér pre K3b",
        "Name[sl]": "K3b-jev dekodirnik Wave",
        "Name[sq]": "K3b Wave Dekoder",
        "Name[sr@ijekavian]": "ВАВ декодер за К3б",
        "Name[sr@ijekavianlatin]": "WAV dekoder za K3b",
        "Name[sr@latin]": "WAV dekoder za K3b",
        "Name[sr]": "ВАВ декодер за К3б",
        "Name[sv]": "K3b Wave-avkodare",
        "Name[th]": "K3b - ตัวถอดรหัส Wave",
        "Name[tr]": "K3b Wave Çözücü",
        "Name[uk]": "Декодер Wave для K3b",
        "Name[x-test]": "xxK3b Wave Decoderxx",
        "Name[zh_CN]": "K3b Wave 解码器",
        "Name[zh_TW]": "K3b Wave 解碼器",
        "Version": "4.0"
    }
}
