{
    "KPlugin": {
        "Authors": [
            {
                "Email": "trueg@k3b.org",
                "Name": "Sebastian Trueg",
                "Name[ca@valencia]": "Sebastian Trueg",
                "Name[ca]": "Sebastian Trueg",
                "Name[cs]": "Sebastian Trueg",
                "Name[da]": "Sebastian Trueg",
                "Name[de]": "Sebastian Trueg",
                "Name[el]": "Sebastian Trueg",
                "Name[en_GB]": "Sebastian Trueg",
                "Name[es]": "Sebastian Trueg",
                "Name[eu]": "Sebastian Trueg",
                "Name[fi]": "Sebastian Trueg",
                "Name[fr]": "Sebastian Trueg",
                "Name[hu]": "Sebastian Trueg",
                "Name[ia]": "Sebastian Trueg",
                "Name[it]": "Sebastian Trueg",
                "Name[ko]": "Sebastian Trueg",
                "Name[nl]": "Sebastian Trueg",
                "Name[pl]": "Sebastian Trueg",
                "Name[pt]": "Sebastian Trueg",
                "Name[pt_BR]": "Sebastian Trueg",
                "Name[sl]": "Sebastian Trueg",
                "Name[sv]": "Sebastian Trueg",
                "Name[uk]": "Sebastian Trueg",
                "Name[x-test]": "xxSebastian Truegxx",
                "Name[zh_CN]": "Sebastian Trueg"
            }
        ],
        "Category": "AudioEncoder",
        "Description": "Encoding module to encode MPEG1 Layer III (MP3) files",
        "Description[bs]": "Modul kodiranja za kodiranje MPEG1 Layer III (mp3) datoteka",
        "Description[ca@valencia]": "Mòdul de codificació per a codificar fitxers MPEG 1 Layer III (MP3)",
        "Description[ca]": "Mòdul de codificació per a codificar fitxers MPEG 1 Layer III (MP3)",
        "Description[cs]": "Modul pro kompresi do souborů MPEG1 Layer III (MP3)",
        "Description[da]": "Indkodningsmodul til MPEG 1 Layer III-filer (MP3)",
        "Description[de]": "Kodierungsmodul zur Kodierung von MPEG1 Layer III-Dateien (MP3)",
        "Description[el]": "Άρθρωμα κωδικοποίησης αρχείων MPEG1 Layer III (MP3)",
        "Description[en_GB]": "Encoding module to encode MPEG1 Layer III (MP3) files",
        "Description[es]": "Módulo de codificado para codificar archivos MPEG1 Layer III (MP3)",
        "Description[et]": "MPEG 1 Layer III (MP3) failide kodeerimise moodul",
        "Description[eu]": "MPEG1 Layer III (MP3) fitxategiak kodetzeko modulua",
        "Description[fi]": "MPEG1 Layer III (MP3) -tiedostojen pakkausmoduuli",
        "Description[fr]": "Module de décodage pour des fichiers audio au format « MPEG1 Layer III (MP3) »",
        "Description[gl]": "Módulo de codificación para ficheiros MPEG capa III (MP3)",
        "Description[hu]": "Kódolómodul MPEG 1 Layer III (MP3)-fájlok készítéséhez",
        "Description[ia]": "Modulo decifrante per decifrar files MPEG 1 Layer III (MP3)",
        "Description[id]": "Modul encoding untuk mengenkode file-file MPEG 1 Layer III (MP3)",
        "Description[it]": "Codifica modulare per i file MPEG1 Layer III (MP3)",
        "Description[ko]": "MPEG 1 레이어 3(MP3) 파일 인코딩 모듈",
        "Description[nl]": "Module voor het coderen van  MPEG1 Layer III-bestanden (MP3)",
        "Description[nn]": "Modul for koding av MPEG 1 lag III-filer (MP3-filer)",
        "Description[pl]": "Moduł kodujący pliki MPEG1 Layer III (MP3)",
        "Description[pt]": "Módulo de codificação de ficheiros MPEG 1 Layer III (MP3)",
        "Description[pt_BR]": "Módulo de codificação de arquivos MPEG1 Layer III (MP3)",
        "Description[ru]": "Модуль кодирования файлов MPEG 1 Layer III (MP3)",
        "Description[sk]": "Modul pre kódovanie súborov MPEG1 Layer III (MP3)",
        "Description[sl]": "Kodirni modul za kodiranje datotek MPEG 1 Layer III (MP3)",
        "Description[sr@ijekavian]": "Модул за кодирање МПЕГ‑1 фајлова слоја 3 (МП3)",
        "Description[sr@ijekavianlatin]": "Modul za kodiranje MPEG‑1 fajlova sloja 3 (MP3)",
        "Description[sr@latin]": "Modul za kodiranje MPEG‑1 fajlova sloja 3 (MP3)",
        "Description[sr]": "Модул за кодирање МПЕГ‑1 фајлова слоја 3 (МП3)",
        "Description[sv]": "Kodningsmodul för att koda MPEG 1 lager III (MP3)-filer",
        "Description[tr]": "MPEG1 Layer III (MP3) dosyalarını şifrelemek için şifreleme modülü",
        "Description[uk]": "Модуль кодування файлів MPEG1 Layer III (MP3)",
        "Description[x-test]": "xxEncoding module to encode MPEG1 Layer III (MP3) filesxx",
        "Description[zh_CN]": "用于编码 MPEG 1 Layer III(MP3) 文件的编码模块",
        "Description[zh_TW]": "編碼 MP3 檔案格式的模組",
        "EnabledByDefault": true,
        "Icon": "preferences-plugin",
        "Id": "k3blameencoder",
        "License": "GPL",
        "Name": "K3b Lame MP3 Encoder",
        "Name[bs]": "Lame Mp3 koder za K3b",
        "Name[ca@valencia]": "Codificador MP3 Lame del K3b",
        "Name[ca]": "Codificador MP3 Lame del K3b",
        "Name[cs]": "K3b Lame MP3 převodník",
        "Name[da]": "K3b Lame MP3-indkodning",
        "Name[de]": "Lame-MP3-Kodierer",
        "Name[el]": "Κωδικοποιητής Lame MP3 του K3b",
        "Name[en_GB]": "K3b Lame MP3 Encoder",
        "Name[es]": "Codificador Lame MP3 de K3b",
        "Name[et]": "K3b Lame MP3 kodeerija",
        "Name[eu]": "K3b Lame MP3 kodetzailea",
        "Name[fi]": "K3b:n lame MP3-pakkaaja",
        "Name[fr]": "Encodeur « MP3 Lame » pour K3b",
        "Name[gl]": "Codificador de MP3 Lame para K3b",
        "Name[hu]": "LAME MP3-kódoló a K3b-hez",
        "Name[ia]": "Codificator Lame MP3 de K3b",
        "Name[id]": "Enkoder Lame MP3 K3b",
        "Name[is]": "K3b Lame MP3 kóðari",
        "Name[it]": "Codificatore MP3 Lame di K3b",
        "Name[ko]": "K3b Lame MP3 인코더",
        "Name[nl]": "K3b Lame MP3-codeerder",
        "Name[nn]": "Lame-basert MP3-kodar for K3b",
        "Name[pl]": "Koder Lame MP3 dla K3b",
        "Name[pt]": "Codificador de MP3 Lame do K3b",
        "Name[pt_BR]": "Codificador de MP3 Lame do K3b",
        "Name[ru]": "Кодер MP3 Lame для K3b",
        "Name[sk]": "Lame MP3 enkodér pre K3b",
        "Name[sl]": "K3b-jev kodirnik Lame MP3",
        "Name[sr@ijekavian]": "Лејмов МП3 кодер за К3б",
        "Name[sr@ijekavianlatin]": "Lameov MP3 koder za K3b",
        "Name[sr@latin]": "Lameov MP3 koder za K3b",
        "Name[sr]": "Лејмов МП3 кодер за К3б",
        "Name[sv]": "K3b Lame MP3-kodare",
        "Name[tr]": "K3b Lame MP3 Şifreleyicisi",
        "Name[uk]": "Кодувальник Lame MP3 для K3b",
        "Name[x-test]": "xxK3b Lame MP3 Encoderxx",
        "Name[zh_CN]": "K3b Lame MP3 编码器",
        "Name[zh_TW]": "K3b Lame MP3 編碼器",
        "Version": "5.0"
    },
    "X-KDE-ConfigModule": "k3b/kcms/kcm_k3blameencoder"
}
